# HTTrack Website Copier Cookie File
# This file format is compatible with Netscape cookies
.invisionfree.com	TRUE	/theip/	FALSE	1999999999	theipanonlogin	-1
.invisionfree.com	TRUE	/theip/	FALSE	1999999999	theipmember_id	12
.invisionfree.com	TRUE	/theip/	FALSE	1999999999	theippass_hash	673583c9d7f8a61ca74d8cad04a54c70
.invisionfree.com	TRUE	/theip/	FALSE	1999999999	theipforum_read	a%3A7%3A%7Bi%3A13%3Bi%3A1515351708%3Bi%3A16%3Bi%3A1515351715%3Bi%3A17%3Bi%3A1515351921%3Bi%3A8%3Bi%3A1515352117%3Bi%3A6%3Bi%3A1515352401%3Bi%3A2%3Bi%3A1515351700%3Bi%3A11%3Bi%3A1515351538%3B%7D
.invisionfree.com	TRUE	/theip/	FALSE	1999999999	theiptopicsread	a%3A8%3A%7Bi%3A145%3Bi%3A1515353475%3Bi%3A147%3Bi%3A1515353477%3Bi%3A146%3Bi%3A1515353479%3Bi%3A148%3Bi%3A1515353481%3Bi%3A144%3Bi%3A1515353483%3Bi%3A142%3Bi%3A1515353485%3Bi%3A143%3Bi%3A1515353487%3Bi%3A141%3Bi%3A1515353489%3B%7D
.invisionfree.com	TRUE	/theip/	FALSE	1999999999	theipsession_id	bbd9e728062c7782c8fec35defc29903

